[gd_scene load_steps=2 format=3 uid="uid://cmwp3os57l6ok"]

[sub_resource type="RectangleShape2D" id="RectangleShape2D_sy1xs"]
size = Vector2(20, 128)

[node name="Barrier" type="StaticBody2D"]

[node name="CollisionShape2D" type="CollisionShape2D" parent="."]
position = Vector2(0, -64)
shape = SubResource("RectangleShape2D_sy1xs")
